# Blender v2.79 (sub 0) OBJ File: ''
# www.blender.org
v -0.000000 1.000000 1.000000
v 0.000000 -1.000000 1.000000
v -0.000000 1.000000 -1.000000
v 0.000000 -1.000000 -1.000000
vt 0.000100 0.000100
vt 0.999900 0.000100
vt 0.999900 0.999900
vt 0.000100 0.999900
vn 1.0000 0.0000 0.0000
s off
f 1/1/1 2/2/1 4/3/1 3/4/1
